<svg width="64" height="64" viewBox="0 0 64 64" fill="none" xmlns="http://www.w3.org/2000/svg">
<g id="UsersThree">
<path id="Vector" d="M60.9 37.2001C60.7424 37.3183 60.5631 37.4043 60.3723 37.4532C60.1815 37.5021 59.9829 37.5129 59.7879 37.485C59.5929 37.4572 59.4053 37.3912 59.2358 37.2908C59.0663 37.1904 58.9182 37.0577 58.8 36.9001C57.5482 35.2174 55.9188 33.8521 54.043 32.9141C52.1671 31.9762 50.0972 31.4919 48 31.5001C47.6022 31.5001 47.2206 31.3421 46.9393 31.0608C46.658 30.7795 46.5 30.3979 46.5 30.0001C46.5 29.6023 46.658 29.2207 46.9393 28.9394C47.2206 28.6581 47.6022 28.5001 48 28.5001C49.2157 28.4998 50.4069 28.1587 51.4384 27.5153C52.4699 26.872 53.3003 25.9523 53.8353 24.8607C54.3703 23.7691 54.5884 22.5494 54.465 21.34C54.3415 20.1306 53.8814 18.9801 53.1369 18.0191C52.3923 17.0581 51.3932 16.3252 50.253 15.9036C49.1128 15.4819 47.8772 15.3885 46.6866 15.6339C45.496 15.8793 44.398 16.4536 43.5174 17.2917C42.6368 18.1298 42.0089 19.198 41.705 20.3751C41.6055 20.7603 41.3571 21.0903 41.0144 21.2923C40.6717 21.4944 40.2627 21.5521 39.8775 21.4526C39.4923 21.3531 39.1623 21.1047 38.9603 20.762C38.7582 20.4193 38.7005 20.0103 38.8 19.6251C39.177 18.1587 39.8991 16.8036 40.9061 15.6729C41.9131 14.5421 43.1757 13.6684 44.5888 13.1246C46.0019 12.5808 47.5245 12.3827 49.0297 12.5467C50.5349 12.7107 51.9791 13.2321 53.242 14.0674C54.5048 14.9028 55.5497 16.0279 56.2895 17.349C57.0293 18.67 57.4426 20.1488 57.495 21.662C57.5474 23.1752 57.2374 24.679 56.5907 26.0481C55.9441 27.4172 54.9795 28.6119 53.7775 29.5326C56.7354 30.6364 59.3124 32.5694 61.2 35.1001C61.3182 35.2577 61.4042 35.437 61.4531 35.6278C61.502 35.8186 61.5128 36.0172 61.4849 36.2122C61.4571 36.4072 61.3911 36.5948 61.2907 36.7643C61.1903 36.9338 61.0576 37.0819 60.9 37.2001ZM47.2975 53.2501C47.3962 53.4206 47.4603 53.609 47.4862 53.8043C47.5121 53.9996 47.4993 54.1982 47.4485 54.3885C47.3976 54.5789 47.3098 54.7574 47.1899 54.9138C47.0701 55.0702 46.9206 55.2015 46.75 55.3001C46.5226 55.4334 46.2636 55.5033 46 55.5026C45.7365 55.5028 45.4777 55.4335 45.2495 55.3019C45.0212 55.1702 44.8317 54.9808 44.7 54.7526C43.3962 52.5435 41.5387 50.7127 39.3111 49.4407C37.0835 48.1688 34.5627 47.4999 31.9975 47.4999C29.4323 47.4999 26.9115 48.1688 24.6839 49.4407C22.4563 50.7127 20.5988 52.5435 19.295 54.7526C19.2012 54.9319 19.0722 55.0903 18.9156 55.2184C18.759 55.3465 18.5781 55.4415 18.3838 55.4979C18.1895 55.5543 17.9858 55.5708 17.785 55.5464C17.5842 55.522 17.3904 55.4572 17.2152 55.356C17.0401 55.2547 16.8872 55.1191 16.7658 54.9572C16.6445 54.7954 16.5571 54.6107 16.5089 54.4142C16.4608 54.2177 16.4529 54.0135 16.4858 53.8139C16.5186 53.6142 16.5915 53.4233 16.7 53.2526C18.7431 49.7422 21.942 47.0505 25.75 45.6376C23.6699 44.287 22.0821 42.3002 21.2236 39.9734C20.365 37.6466 20.2816 35.1047 20.9859 32.7266C21.6902 30.3486 23.1444 28.262 25.1316 26.7781C27.1187 25.2941 29.5324 24.4923 32.0125 24.4923C34.4926 24.4923 36.9063 25.2941 38.8934 26.7781C40.8806 28.262 42.3348 30.3486 43.0391 32.7266C43.7434 35.1047 43.66 37.6466 42.8014 39.9734C41.9429 42.3002 40.3551 44.287 38.275 45.6376C42.0724 47.0553 45.2609 49.7455 47.2975 53.2501ZM32 44.5001C33.6811 44.5001 35.3245 44.0016 36.7223 43.0676C38.1202 42.1336 39.2096 40.8061 39.853 39.2529C40.4963 37.6997 40.6646 35.9907 40.3367 34.3418C40.0087 32.693 39.1992 31.1784 38.0104 29.9897C36.8217 28.8009 35.3071 27.9914 33.6583 27.6634C32.0094 27.3355 30.3004 27.5038 28.7472 28.1471C27.194 28.7905 25.8665 29.8799 24.9325 31.2778C23.9985 32.6756 23.5 34.319 23.5 36.0001C23.5 38.2544 24.3955 40.4164 25.9896 42.0105C27.5837 43.6046 29.7457 44.5001 32 44.5001ZM17.5 30.0001C17.5 29.6023 17.342 29.2207 17.0607 28.9394C16.7794 28.6581 16.3978 28.5001 16 28.5001C14.7845 28.4997 13.5934 28.1585 12.5621 27.5152C11.5307 26.8719 10.7004 25.9523 10.1654 24.8609C9.63047 23.7694 9.41226 22.5498 9.5356 21.3406C9.65893 20.1313 10.1189 18.9809 10.8632 18.0199C11.6075 17.0589 12.6064 16.3259 13.7463 15.9041C14.8863 15.4822 16.1217 15.3885 17.3123 15.6335C18.5029 15.8786 19.6009 16.4525 20.4817 17.2902C21.3624 18.1279 21.9907 19.1958 22.295 20.3726C22.3442 20.5633 22.4306 20.7425 22.5491 20.8999C22.6676 21.0573 22.8159 21.1898 22.9856 21.2898C23.1553 21.3899 23.343 21.4555 23.5381 21.483C23.7332 21.5105 23.9318 21.4993 24.1225 21.4501C24.3132 21.4009 24.4924 21.3145 24.6498 21.196C24.8072 21.0775 24.9397 20.9292 25.0397 20.7595C25.1398 20.5898 25.2054 20.4021 25.2329 20.207C25.2604 20.0119 25.2492 19.8133 25.2 19.6226C24.823 18.1562 24.1009 16.8011 23.0939 15.6704C22.0869 14.5396 20.8243 13.6659 19.4112 13.1221C17.9981 12.5783 16.4755 12.3802 14.9703 12.5442C13.4651 12.7082 12.0209 13.2296 10.758 14.0649C9.4952 14.9003 8.45033 16.0254 7.71051 17.3465C6.97069 18.6675 6.55735 20.1463 6.50495 21.6595C6.45256 23.1727 6.76261 24.6765 7.40927 26.0456C8.05594 27.4147 9.02048 28.6094 10.2225 29.5301C7.2643 30.6346 4.68722 32.5685 2.8 35.1001C2.68181 35.2577 2.59582 35.437 2.54693 35.6278C2.49804 35.8186 2.48722 36.0172 2.51508 36.2122C2.54293 36.4072 2.60893 36.5948 2.70929 36.7643C2.80965 36.9338 2.94241 37.0819 3.1 37.2001C3.25759 37.3183 3.43691 37.4043 3.62773 37.4532C3.81855 37.5021 4.01713 37.5129 4.21213 37.485C4.40714 37.4572 4.59474 37.3912 4.76424 37.2908C4.93374 37.1904 5.08181 37.0577 5.2 36.9001C6.45177 35.2174 8.08117 33.8521 9.95702 32.9141C11.8329 31.9762 13.9028 31.4919 16 31.5001C16.3978 31.5001 16.7794 31.3421 17.0607 31.0608C17.342 30.7795 17.5 30.3979 17.5 30.0001Z" fill="black"/>
</g>
</svg>
