<?xml version="1.0" encoding="UTF-8"?>
<svg id="Ebene_1" data-name="Ebene 1" xmlns="http://www.w3.org/2000/svg" xmlns:xlink="http://www.w3.org/1999/xlink" viewBox="0 0 150 150">
  <defs>
    <style>
      .cls-1, .cls-2, .cls-3 {
        fill: none;
      }

      .cls-4 {
        fill: #f5b4cb;
      }

      .cls-5 {
        fill: #e5e5e5;
      }

      .cls-2 {
        stroke: #f5b4cb;
        stroke-miterlimit: 10;
        stroke-width: 2px;
      }

      .cls-3 {
        clip-path: url(#clippath);
      }
    </style>
    <clipPath id="clippath">
      <rect class="cls-1" x="0" y="0" width="150" height="150"/>
    </clipPath>
  </defs>
  <g class="cls-3">
    <polygon class="cls-5" points="80.13 44.52 83.52 15.86 166.89 22.93 163.28 52.91 80.13 44.52"/>
    <polygon class="cls-5" points="74.24 80.52 78.68 51.97 161.83 60.35 158.93 89.06 74.24 80.52"/>
    <polygon class="cls-5" points="69.17 117.48 72.62 88.83 158.9 97.53 155.45 126.18 69.17 117.48"/>
    <polygon class="cls-5" points="73.37 44.27 42.12 42.66 40.63 10.99 76 13.66 73.37 44.27"/>
    <polygon class="cls-5" points="68.73 80.31 43.25 79.1 41.43 47.43 71.37 49.7 68.73 80.31"/>
    <polygon class="cls-5" points="63.7 117.58 46.35 116.41 42.54 85.88 66.28 87.68 63.7 117.58"/>
    <polygon class="cls-5" points="-3.07 -28.55 27.84 -26.59 36.98 114.76 -.79 117.21 -13.2 8.28 -3.07 -28.55"/>
    <polygon class="cls-5" points="164.38 15.81 165.36 -4.49 36.78 -24.97 38.42 5.38 164.38 15.81"/>
    <polygon class="cls-5" points="154.19 132.64 149.71 158.13 55.49 151.34 -9.26 149.86 -4.03 128.87 48.2 125.08 154.19 132.64"/>
  </g>
  <g>
    <path class="cls-4" d="m37.55,24.36l.87,32.71h4.34v25.44h12.31v-25.44h4.34l.87-32.71h-22.73Zm19.37,28.14h-16.01l-.66-24.95h17.33l-.66,24.95Z"/>
    <polygon class="cls-4" points="52.35 29.39 48.49 29.39 42.44 40.96 49.26 40.96 45.66 50.66 55.38 37.8 47.83 37.8 52.35 29.39"/>
  </g>
  <g>
    <path class="cls-4" d="m104.04,67.8l.87,32.71h4.34v25.44h12.31v-25.44h4.34l.87-32.71h-22.73Zm19.37,28.14h-16.01l-.66-24.95h17.33l-.66,24.95Z"/>
    <polygon class="cls-4" points="118.84 72.82 114.99 72.82 108.93 84.39 115.75 84.39 112.15 94.09 121.88 81.23 114.33 81.23 118.84 72.82"/>
  </g>
  <polygon class="cls-2" points="145.54 18.19 34.55 8.61 42.69 119.45 145.54 128.46 145.54 18.19"/>
</svg>