<?xml version="1.0" encoding="UTF-8"?>
<svg id="Ebene_1" data-name="Ebene 1" xmlns="http://www.w3.org/2000/svg" viewBox="0 0 90 90">
  <g id="eZjIrJ.tif">
    <g>
      <path d="m88.55,75.86c-.37.36-.82.43-1.33.43-9.98-.01-19.96,0-29.93-.02-.65,0-.86.15-.85.83.04,3.44.02,6.88.02,10.32,0,1.07-.21,1.28-1.28,1.28-3.29,0-6.59,0-9.88,0-1.07,0-1.26-.2-1.26-1.29,0-3.44-.02-6.88,0-10.32,0-.6-.09-.83-.78-.83-4.73.04-9.47.03-14.2,0-.57,0-.74.13-.74.72.03,3.54.01,7.08.01,10.61,0,1.09-.2,1.28-1.27,1.29-4.1,0-8.2,0-12.3,0-.99,0-1.19-.21-1.19-1.21,0-3.56-.01-7.13.01-10.69,0-.57-.14-.73-.72-.73-3.54.03-7.07.01-10.61.01-1.09,0-1.27-.19-1.27-1.28,0-4.1,0-8.2,0-12.3,0-.98.21-1.19,1.2-1.19,3.54,0,7.08-.02,10.61.02.66,0,.79-.18.79-.81-.02-19.3-.01-38.6-.01-57.9,0-1.41.08-1.49,1.49-1.49,3.95,0,7.9,0,11.86,0,1.26,0,1.4.14,1.4,1.44,0,19.18,0,38.36,0,57.54q0,1.2,1.18,1.2c4.59,0,9.17-.01,13.76.01.61,0,.76-.18.77-.77.07-3.55.7-6.99,2.25-10.2,2.86-5.93,7.77-9.21,14.02-10.7,2.62-.63,5.29-.85,7.98-.86,1.4,0,2.77-.12,4.13-.46,1.79-.46,2.85-1.57,3.24-3.38.29-1.35.38-2.71.38-4.07.03-9.39.1-18.79-.06-28.18-.02-1.3.11-1.44,1.39-1.45,3.27-.04,6.54-.08,9.81-.11,1-.01,1.2.19,1.21,1.18.02,1.81.03,3.61.05,5.42,0,.39.06.77.09,1.16v16.98c-.17,1.04-.12,2.09-.11,3.13.03,2.29.04,4.58-.33,6.86-1.07,6.64-4.64,11.23-11.06,13.48-2.77.97-5.64,1.3-8.56,1.3-1.83,0-3.65.15-5.44.57-3.39.8-5.52,2.84-6.24,6.29-.2.98-.3,1.97-.38,2.97-.05.66.11.86.8.85,10-.02,19.99-.01,29.99-.02.5,0,.97.03,1.32.44v13.91Zm-1.63-57.01s.01,0,.02,0c0-1.49,0-2.98,0-4.46-.02-3.59-.05-7.17-.05-10.76,0-.56-.14-.78-.74-.74-.92.06-1.85.05-2.78.03-.49-.01-.7.11-.67.65.05.83.03,1.66.03,2.49,0,.41.08.95-.52.93-.57-.02-.51-.55-.51-.96,0-.85-.03-1.71,0-2.56.01-.43-.14-.54-.55-.53-.93.03-1.86.07-2.78,0-.71-.05-.82.23-.82.86.05,8.17.16,16.35.02,24.52-.03,1.93.07,3.85-.14,5.78-.4,3.72-2.18,5.62-5.87,6.19-1.21.19-2.42.27-3.64.27-2.79,0-5.55.3-8.24,1.06-5.85,1.65-10.21,5.05-12.51,10.81-1.15,2.87-1.6,5.88-1.61,8.95-.03,8.39,0,16.78,0,25.18,0,.49.16.61.63.6,2.63-.02,5.27-.03,7.9,0,.63,0,.81-.13.81-.79-.03-8.08-.02-16.15-.04-24.23,0-1.39.07-2.78.31-4.15.72-4.11,2.97-6.84,7.08-7.95,1.95-.52,3.93-.71,5.93-.72,2.2-.01,4.39-.18,6.53-.7,5.42-1.33,9.33-4.4,11.14-9.82.83-2.48,1.05-5.05,1.06-7.65.02-4.1,0-8.2,0-12.3ZM15.15,32.15c0,6.12,0,12.25,0,18.37,0,3.44.01,6.88-.01,10.32,0,.55.15.71.7.69,1-.04,2-.01,3-.01q1.6,0,1.62-1.56s0-.1,0-.15c-.02-.38.08-.73.52-.71.44.02.52.37.51.74,0,.32.03.64,0,.95-.06.55.1.77.7.74,1.24-.05,2.49-.06,3.73,0,.69.03.89-.14.89-.86-.02-18.96-.02-37.91-.02-56.87,0-.12-.01-.25,0-.37.05-.41-.11-.55-.53-.54-1.41.02-2.83.02-4.24,0-.43,0-.54.15-.53.55.03.78,0,1.56,0,2.34,0,.36-.13.65-.53.65-.4,0-.5-.31-.5-.66,0-.76-.03-1.51.01-2.27.02-.49-.16-.62-.63-.61-1.24.03-2.49,0-3.73,0q-.95,0-.95.93c0,9.44,0,18.88,0,28.32Zm8.1,42.56c6.68,0,13.37,0,20.05.01.54,0,.77-.1.75-.71-.05-1.34-.04-2.68-.01-4.02,0-.44-.1-.63-.57-.58-.38.03-.86.07-.88-.49-.02-.58.46-.56.84-.52.5.05.61-.16.6-.62-.03-1.22,0-2.44-.01-3.66,0-1.14.15-1.03-1-1.03-13.15,0-26.29,0-39.44,0-.17,0-.34.01-.51,0-.37-.03-.53.1-.52.49.02,1.44.01,2.88,0,4.32,0,.37.12.52.5.51.88-.02,1.76,0,2.63,0,.37,0,.73.04.73.51,0,.45-.35.53-.72.52-.83,0-1.66.03-2.49-.01-.5-.02-.68.11-.67.64.04,1.29.05,2.59,0,3.88-.03.65.17.81.81.8,6.63-.02,13.27-.02,19.9-.02Zm48.46-11.64c-4.85,0-9.71.01-14.56-.01-.61,0-.77.17-.77.78.04,3.37.07,6.73.04,10.1,0,.68.22.79.83.79,9.63-.02,19.27-.01,28.9-.01.12,0,.24-.01.37,0,.33.03.48-.09.48-.45-.01-1.46-.01-2.93,0-4.39,0-.35-.11-.47-.46-.46-.68.02-1.37,0-2.05,0-.36,0-.64-.12-.64-.53,0-.42.31-.5.66-.5.61,0,1.22-.03,1.83,0,.5.03.68-.12.67-.64-.03-1.29-.05-2.59,0-3.88.03-.65-.16-.82-.81-.81-4.83.03-9.66.02-14.49.02Zm-44.93,18.79c0-1.68-.01-3.37,0-5.05,0-.41-.12-.55-.54-.54-1.41.02-2.83.02-4.24,0-.42,0-.54.14-.53.54.02,1.02,0,2.05,0,3.07,0,.38,0,.79-.51.81-.53.02-.52-.4-.52-.78,0-1.02-.02-2.05,0-3.07.01-.46-.14-.58-.58-.58-1.39.02-2.78.02-4.17,0-.38,0-.57.07-.57.52.02,3.34.01,6.69,0,10.03,0,.37.1.52.5.52,1.44-.02,2.88-.01,4.32,0,.38,0,.51-.14.5-.52-.02-.76,0-1.51,0-2.27,0-.35.05-.67.47-.69.45-.02.56.29.56.68,0,.71.03,1.42,0,2.12-.03.49.09.69.63.68,1.34-.04,2.68-.03,4.02,0,.5.01.67-.13.66-.65-.03-1.61-.01-3.22-.01-4.83Z"/>
      <path d="m38.4,14.72c-.23-7.91,6.18-13.78,13.75-13.74,7.69.04,13.65,6.14,13.65,13.75,0,7.28-5.63,13.78-13.77,13.68-7.92-.09-13.62-5.74-13.62-13.69Zm13.65-12.13c-6.85-.26-12.12,5.3-12.16,12.02-.04,7.08,5.52,12.25,12.12,12.27,6.52.02,12.22-4.96,12.23-12.16,0-7.11-5.56-12.41-12.19-12.13Z"/>
      <path d="m82.77,29.2c0,.63,0,1.27,0,1.9,0,.34-.1.66-.5.67-.41.01-.52-.3-.52-.65-.01-1.27-.02-2.53-.02-3.8,0-.34.08-.66.51-.67.49,0,.51.36.51.71,0,.61,0,1.22,0,1.83.01,0,.02,0,.03,0Z"/>
      <path d="m82.48,35.45c-.22,1.43-.59,2.8-1.27,4.08-.14.26-.39.39-.68.22-.27-.15-.36-.39-.22-.68.58-1.19.93-2.44,1.16-3.74.05-.3.24-.49.56-.45.32.04.44.27.45.57Z"/>
      <path d="m68.32,45.69c-.61,0-1.22,0-1.83,0-.36,0-.64-.12-.64-.53,0-.37.26-.49.59-.5,1.29-.04,2.58-.09,3.87-.13.37-.01.64.13.64.52,0,.35-.26.49-.6.5-.68.03-1.36.06-2.04.09,0,.01,0,.02,0,.03Z"/>
      <path d="m49.75,59.84c.12-1.16.26-2.32.54-3.46.09-.36.2-.7.65-.61.5.1.44.48.35.87-.26,1.07-.41,2.15-.5,3.25-.04.4.06.93-.56.91-.63-.02-.46-.56-.48-.96Z"/>
      <path d="m54.84,48.69c.23.01.4.08.5.28.15.3,0,.51-.2.71-.66.62-1.25,1.29-1.76,2.05-.22.32-.41.66-.63.98-.17.23-.42.26-.65.13-.23-.13-.35-.36-.21-.62.69-1.3,1.6-2.44,2.71-3.41.07-.06.17-.08.24-.11Z"/>
      <path d="m74.61,44.82c-.3,0-.49-.08-.57-.33-.08-.26-.03-.52.23-.62,1.29-.45,2.52-1.02,3.63-1.83.22-.16.48-.09.65.13.17.22.16.48-.06.66-1.16.96-2.51,1.56-3.89,1.98Z"/>
      <path d="m81.79,20.93c0-.61,0-1.22,0-1.83,0-.38.08-.72.53-.71.39,0,.51.31.51.67,0,1.27,0,2.53-.01,3.8,0,.36-.14.65-.54.64-.4,0-.5-.32-.49-.67,0-.63,0-1.27,0-1.9h0Z"/>
      <path d="m49.71,66.53c0-.66,0-1.32,0-1.98,0-.33.12-.59.5-.59.37,0,.52.26.53.58.01,1.32.01,2.63,0,3.95,0,.33-.17.59-.52.59-.35,0-.51-.24-.51-.58,0-.66,0-1.32,0-1.98Z"/>
      <path d="m62.1,45.22c.35,0,.57.09.64.36.08.31-.08.54-.37.61-1.32.31-2.61.71-3.86,1.25-.28.12-.53-.02-.64-.31-.11-.28.02-.49.25-.61,1.29-.63,2.66-1.04,3.98-1.3Z"/>
      <path d="m50.76,74.79c0,.63,0,1.27,0,1.9,0,.35-.12.64-.53.64-.42,0-.5-.3-.5-.65,0-1.27,0-2.53,0-3.8,0-.36.1-.66.5-.66.39,0,.51.31.52.67,0,.63,0,1.27,0,1.9,0,0,0,0,0,0Z"/>
      <path d="m82.81,12.72c0,.63,0,1.27,0,1.9,0,.36-.14.64-.55.62-.38-.01-.47-.29-.47-.61,0-1.29-.02-2.58-.02-3.87,0-.32.09-.6.46-.62.41-.02.55.26.56.62.01.66,0,1.32,0,1.97,0,0,.01,0,.02,0Z"/>
      <path d="m49.73,83.02c0-.63,0-1.27,0-1.9,0-.33.1-.6.47-.61.41-.02.55.26.55.62,0,1.29,0,2.59,0,3.88,0,.37-.17.64-.56.62-.35-.02-.47-.29-.47-.62,0-.66,0-1.32,0-1.98Z"/>
      <path d="m21.48,28.64c0,.63,0,1.27,0,1.9,0,.35-.12.65-.52.65-.41,0-.51-.3-.51-.65,0-1.27,0-2.53,0-3.8,0-.35.09-.66.51-.65.4,0,.52.3.52.65,0,.63,0,1.27,0,1.9Z"/>
      <path d="m20.46,45.09c0-.63,0-1.27,0-1.9,0-.34.12-.58.5-.59.36,0,.52.23.53.57,0,1.32,0,2.63,0,3.95,0,.34-.17.59-.51.6-.39,0-.52-.28-.52-.65,0-.66,0-1.32,0-1.97Z"/>
      <path d="m21.48,53.39c0,.63,0,1.27,0,1.9,0,.35-.11.65-.52.66-.42,0-.51-.29-.51-.65,0-1.27,0-2.53,0-3.8,0-.36.09-.66.5-.66.4,0,.53.29.53.65,0,.63,0,1.27,0,1.9Z"/>
      <path d="m20.45,36.85c0-.63,0-1.27,0-1.9,0-.34.13-.6.48-.62.39-.02.55.26.55.62,0,1.29,0,2.58,0,3.87,0,.36-.15.63-.56.61-.38-.02-.47-.29-.47-.62,0-.66,0-1.32,0-1.97Z"/>
      <path d="m21.48,20.37c0,.61,0,1.22,0,1.83,0,.38-.08.73-.51.75-.44.02-.53-.33-.53-.71,0-1.22,0-2.44,0-3.65,0-.36.02-.73.49-.74.51,0,.54.39.54.78,0,.58,0,1.17,0,1.75Z"/>
      <path d="m20.45,12.04c0-.61,0-1.22,0-1.83,0-.37.13-.65.52-.65.34,0,.51.26.51.59,0,1.32,0,2.63,0,3.95,0,.33-.16.57-.52.57-.37,0-.5-.25-.5-.59,0-.68,0-1.36,0-2.05Z"/>
      <path d="m12.19,68.39c.63,0,1.27,0,1.9,0,.35,0,.58.16.58.51,0,.35-.23.52-.58.52-1.32,0-2.63,0-3.95,0-.35,0-.58-.18-.59-.52,0-.34.23-.51.59-.51.68,0,1.37,0,2.05,0Z"/>
      <path d="m36.93,68.39c.63,0,1.27,0,1.9,0,.35,0,.59.15.6.5,0,.34-.22.53-.57.53-1.32,0-2.63,0-3.95,0-.34,0-.59-.15-.59-.5,0-.4.26-.53.64-.53.66,0,1.32,0,1.97,0Z"/>
      <path d="m20.4,68.39c.63,0,1.27,0,1.9,0,.37,0,.65.14.63.54-.01.34-.27.49-.61.49-1.29,0-2.58,0-3.87,0-.36,0-.64-.14-.62-.54.02-.42.33-.49.68-.48.63,0,1.27,0,1.9,0Z"/>
      <path d="m28.54,69.41c-.61,0-1.22,0-1.83,0-.36,0-.66-.14-.65-.52,0-.39.3-.51.66-.51,1.27,0,2.53,0,3.8,0,.36,0,.65.1.64.51,0,.41-.3.52-.65.52-.66,0-1.32,0-1.97,0Z"/>
      <path d="m78.15,69.41c-.63,0-1.27,0-1.9,0-.36,0-.66-.12-.67-.5-.01-.39.27-.53.64-.53,1.27,0,2.54,0,3.8,0,.36,0,.66.09.66.5,0,.45-.32.54-.71.53-.61,0-1.22,0-1.83,0Z"/>
      <path d="m61.55,69.41c-.58,0-1.17,0-1.75,0-.38,0-.71-.08-.71-.53,0-.42.31-.5.66-.5,1.27,0,2.53,0,3.8,0,.37,0,.65.14.64.53-.01.38-.31.51-.67.51-.66,0-1.32,0-1.97,0Z"/>
      <path d="m69.83,69.41c-.61,0-1.22,0-1.83,0-.35,0-.66-.1-.67-.5-.02-.41.27-.53.63-.53,1.29,0,2.58,0,3.87,0,.33,0,.59.12.6.49,0,.4-.27.54-.63.54-.66,0-1.32,0-1.97,0Z"/>
      <path d="m52.62,12.85c1.26-1.14,2.47-2.23,3.68-3.33.32-.29.67-.4,1.06-.15.31.2.36.5.3.84-.04.21-.19.34-.33.47-1.66,1.51-3.32,3.01-4.99,4.52-.27.25-.57.37-.93.21-.36-.16-.46-.47-.46-.84,0-3.05,0-6.1,0-9.14,0-.5.22-.87.77-.88.59,0,.79.4.8.92,0,2.17,0,4.34,0,6.51,0,.26-.07.53.11.87Z"/>
    </g>
  </g>
</svg>