<?xml version="1.0" encoding="UTF-8"?>
<svg id="Ebene_1" data-name="Ebene 1" xmlns="http://www.w3.org/2000/svg" viewBox="0 0 90 90">
  <defs>
    <style>
      .cls-1 {
        fill: #f5b4cb;
      }
    </style>
  </defs>
  <rect class="cls-1" x="0" width="90" height="90"/>
  <path d="m54.84,38.24c-3.96,0-7.17-3.54-7.17-7.89s3.22-7.89,7.17-7.89,7.17,3.54,7.17,7.89-3.22,7.89-7.17,7.89Zm0-14.56c-3.34,0-6.06,2.99-6.06,6.67s2.72,6.67,6.06,6.67,6.06-2.99,6.06-6.67-2.72-6.67-6.06-6.67Z"/>
  <path d="m44.13,53.89c-3.05,0-5.52-2.73-5.52-6.08s2.48-6.08,5.52-6.08,5.52,2.73,5.52,6.08-2.48,6.08-5.52,6.08Zm0-11.21c-2.57,0-4.67,2.3-4.67,5.14s2.09,5.14,4.67,5.14,4.67-2.3,4.67-5.14-2.09-5.14-4.67-5.14Z"/>
  <path d="m35.02,34.53c-3.96,0-7.17-3.54-7.17-7.89s3.22-7.89,7.17-7.89,7.17,3.54,7.17,7.89-3.22,7.89-7.17,7.89Zm0-14.56c-3.34,0-6.06,2.99-6.06,6.67s2.72,6.67,6.06,6.67,6.06-2.99,6.06-6.67-2.72-6.67-6.06-6.67Z"/>
  <path d="m35.15,72.82h-14.38v-29.13c0-3.59,2.92-6.5,6.5-6.5h14.04c3.28,0,6.03,2.37,6.6,5.5l-1.17.25c-.46-2.58-2.71-4.55-5.42-4.55h-14.04c-2.92,0-5.3,2.38-5.3,5.3v27.93h13.18"/>
  <path d="m41.48,71.62h24.86v-22.67c0-3.04-2.47-5.51-5.51-5.51h-14.04v-1.2h14.04c3.7,0,6.71,3.01,6.71,6.71v23.87h-27.25"/>
  <path d="m36.35,71.62h15.56v-6.12l1.19-.27v7.59h-17.95v-8.02h1.2v6.82m15.55-10.05c0-3.04-2.47-5.51-5.51-5.51h-4.74c-1.46,0-2.79.59-3.75,1.56-.8.8-1.15,1.69-1.23,1.93l-1.22-.15c.84-2.63,3.3-4.53,6.2-4.53h4.74c3.35,0,6.14,2.47,6.63,5.69l-1.12,1.02Zm-15.55,10.05h15.55"/>
  <path d="m38.74,66.45c-.33,0-.67-.06-1.01-.19l-15.17-5.8c-1.07-.41-1.79-1.46-1.79-2.6v-10.67h1.2v10.67c0,.65.41,1.25,1.02,1.48l15.17,5.8c.77.29,1.63-.04,1.99-.79l.27-.56c.2-.4.21-.85.05-1.27-.16-.42-.48-.74-.89-.9l-10.09-4.04c-1.68-.67-2.77-2.28-2.77-4.09v-6.31h1.2v6.31c0,1.32.79,2.49,2.02,2.98l10.09,4.04c.72.29,1.29.86,1.57,1.58s.24,1.53-.09,2.22l-.27.56c-.48.99-1.46,1.57-2.5,1.57Z"/>
  <path d="m51.53,66.41c-.94,0-1.84-.53-2.27-1.43l-.24-.5c-.31-.63-.34-1.37-.08-2.03.25-.66.77-1.18,1.43-1.44l8.95-3.58c1.06-.42,1.75-1.44,1.75-2.58v-5.6h1.2v5.6c0,1.64-.98,3.09-2.5,3.69l-8.95,3.58c-.35.14-.62.41-.75.76-.14.35-.12.73.04,1.07l.24.5c.31.63,1.03.92,1.68.67l13.45-5.15c.52-.2.86-.7.86-1.25v-9.47h1.2v9.47c0,1.04-.66,2-1.63,2.37l-13.45,5.15c-.3.12-.61.17-.92.17Z"/>
  <line x1="41.48" y1="71.62" x2="40.28" y2="72.82"/>
</svg>