<?xml version="1.0" encoding="UTF-8"?>
<svg id="Ebene_1" data-name="Ebene 1" xmlns="http://www.w3.org/2000/svg" viewBox="0 0 90 90">
  <defs>
    <style>
      .cls-1 {
        fill: #f5b4cb;
      }
    </style>
  </defs>
  <rect class="cls-1" x="0" width="90" height="90"/>
  <path d="m78.16,39.84l-.49-.88c-.76-1.36-3.75.16-4.08.33l-3.89,1.9v-5.45c0-1.59-5.33-2.02-8.47-2.02-2.42,0-6.12.25-7.71,1.09v-5.31c0-1.59-5.33-2.02-8.47-2.02s-8.47.43-8.47,2.02v6.07s0,.02,0,.04h0v3.07s.02.09.03.14l-5.43-1.16c-1.23-.26-2.51-.16-3.68.3l-4.44,1.75v-.33c0-.55-.23-1.08-.64-1.45-.41-.37-.95-.55-1.5-.5l-9.39.92v24.15l8.51-.46c1.7-.09,3.03-1.5,3.03-3.2v-3l11.22,1.68c.42.06.85.09,1.27.09.28,0,.57-.01.85-.04l16.6-1.66c1.03-.1,2.02-.41,2.93-.9l21.2-11.55c.63-.34,1.08-.91,1.28-1.6.2-.69.11-1.41-.23-2.03Zm-18.43,6.22h-.87c.36-.46.47-1.06.28-1.61-.1-.28-.26-.52-.47-.7.91.06,1.8.09,2.55.09,1.22,0,2.52-.13,3.72-.32l-5.21,2.55Zm-22.39-12.56c1.58.84,5.28,1.1,7.71,1.1s6.12-.25,7.71-1.1v2.07c-.14.44-2.91,1.26-7.71,1.26s-7.56-.82-7.71-1.25v-2.08Zm15.61,8.8l-7.52-1.6c2.41-.02,5.82-.29,7.32-1.09v2.21c0,.18.07.33.19.48Zm15.31-.4c-1.27.46-3.91,1.17-7.03,1.17-4.79,0-7.56-.82-7.71-1.25v-2.08c1.58.84,5.28,1.1,7.71,1.1s6.12-.25,7.71-1.09v1.83l-.67.33Zm.67-3.15v.06c-.15.44-2.92,1.26-7.71,1.26s-7.57-.82-7.71-1.25v-2.15c1.58.84,5.28,1.1,7.71,1.1s6.12-.25,7.71-1.1v2.08s0,0,0,0Zm-7.71-4.25c4.76,0,7.52.81,7.7,1.25-.18.44-2.95,1.25-7.7,1.25s-7.56-.82-7.71-1.24h0c.15-.45,2.92-1.26,7.71-1.26Zm-16.18-6.24c4.76,0,7.52.81,7.7,1.25-.18.44-2.95,1.25-7.7,1.25s-7.55-.82-7.71-1.24h0c.15-.44,2.92-1.26,7.71-1.26Zm-7.71,2.17c1.58.84,5.28,1.1,7.71,1.1s6.12-.25,7.71-1.1v2.08s0,0,0,0v.06c-.15.44-2.92,1.26-7.71,1.26s-7.56-.82-7.71-1.25v-2.15Zm0,8.25v-2.18c1.58.84,5.28,1.1,7.71,1.1s6.12-.25,7.71-1.09v2.17c-.15.44-2.92,1.26-7.71,1.26-1.85,0-3.39-.12-4.6-.3l-2.22-.47c-.54-.17-.84-.35-.89-.48Zm-15.22,20.17c0,1.21-.95,2.22-2.16,2.28l-7.53.41v-22.34l8.56-.84c.3-.03.58.07.79.26s.34.47.34.77v19.47Zm55.39-17.24c-.13.45-.43.82-.84,1.04l-21.2,11.55c-.8.44-1.67.7-2.58.8l-16.6,1.66c-.63.06-1.27.05-1.9-.05l-11.36-1.7v-14.22l4.78-1.88c1.01-.4,2.09-.49,3.15-.26l26.73,5.69c.27.06.48.24.57.5s.04.53-.13.74l-.3.37c-.38.46-.97.71-1.57.66l-13.38-1.06-.09.92,14.91,1.69,16.3-7.96c1.3-.68,2.71-.97,2.86-.7l.49.88c.23.41.28.88.15,1.33Z"/>
</svg>