<?xml version="1.0" encoding="UTF-8"?>
<svg id="Ebene_1" data-name="Ebene 1" xmlns="http://www.w3.org/2000/svg" viewBox="0 0 90 90">
  <defs>
    <style>
      .cls-1 {
        fill: #f5b4cb;
      }
    </style>
  </defs>
  <rect class="cls-1" x="0" width="90" height="90"/>
  <g>
    <path d="m73.79,41.03l-9.92-1-11.98-12.76c-.65-.69-1.57-1.09-2.51-1.09h-22.73c-.92,0-1.78.49-2.24,1.28l-7.46,12.55h-.85c-1.97,0-3.58,1.6-3.58,3.58v11.65c0,.82.32,1.58.9,2.16.57.57,1.33.88,2.13.88h.04l3.52-.04c.46,3.16,3.17,5.59,6.46,5.59s6.09-2.51,6.48-5.74h.56s24.17,0,24.17,0c.39,3.23,3.14,5.75,6.48,5.75s6.09-2.52,6.48-5.75h4.75c1.68,0,3.05-1.37,3.05-3.05v-9.71c0-2.13-1.59-3.96-3.71-4.28Zm-21.04-1.02c-.51-.67-1.57-1.13-2.82-1.13s-2.31.46-2.82,1.13h-3.5c-.1,0-.2-.04-.27-.11-.07-.07-.11-.17-.11-.27l.19-7.52c0-.23.19-.41.42-.41h10.4l7.72,8.32h-9.21Zm-1.85,0h-1.95c.29-.08.62-.13.98-.13s.68.05.97.13Zm-20.02,18.08c-.39,2.61-2.62,4.62-5.34,4.62s-4.89-1.95-5.33-4.5c0,0-.11-.62-.07-1.11.1-2.9,2.48-5.24,5.4-5.24s5.23,2.27,5.39,5.11c.04.45-.05,1.11-.05,1.11Zm37.69-.02c-.38,2.62-2.62,4.64-5.34,4.64s-4.96-2.02-5.34-4.64c-.05-.27-.05-1.11-.05-1.11.17-2.83,2.51-5.09,5.39-5.09s5.21,2.26,5.39,5.09c0,0,0,.88-.05,1.11Zm7.82-3.05c0,1.07-.87,1.94-1.94,1.94h-4.71c-.17-3.45-3.02-6.2-6.51-6.2s-6.34,2.75-6.51,6.2h-24.66c-.17-3.44-3.02-6.2-6.51-6.2s-6.43,2.84-6.52,6.36l-3.47.04h-.02c-.51,0-.99-.2-1.35-.55-.37-.37-.57-.85-.57-1.37v-11.65c0-1.36,1.11-2.47,2.47-2.47h1.48l7.79-13.1c.27-.45.76-.73,1.29-.73h22.73c.64,0,1.26.27,1.7.74l2.4,2.56h-9.64c-.84,0-1.51.66-1.53,1.49l-.19,7.52c0,.4.14.79.42,1.08.28.29.66.45,1.06.45h19.97l10.07,1.01c1.56.23,2.74,1.6,2.74,3.18v9.71Z"/>
    <path d="m38.25,30.53h-9.73c-.89,0-1.69.53-2.04,1.35l-3.06,7.12c-.2.47-.15,1.01.13,1.44.28.43.76.68,1.27.68h13.45c1.27,0,2.31-1.04,2.31-2.31v-5.94c0-1.29-1.05-2.34-2.34-2.34Zm1.23,8.28c0,.66-.54,1.2-1.2,1.2h-13.45c-.2,0-.31-.13-.34-.19-.04-.06-.11-.2-.03-.39l3.06-7.12c.18-.41.58-.67,1.02-.67h9.73c.68,0,1.23.55,1.23,1.23v5.94Z"/>
    <path d="m46.16,44.16h-3.8c-.31,0-.55.25-.55.55s.25.55.55.55h3.8c.31,0,.55-.25.55-.55s-.25-.55-.55-.55Z"/>
    <path d="m49.93,32.34c-1.75,0-3.17,1.42-3.17,3.17s1.42,3.16,3.17,3.16,3.16-1.42,3.16-3.16-1.42-3.17-3.16-3.17Zm0,5.33c-1.19,0-2.17-.97-2.17-2.16s.97-2.17,2.17-2.17,2.16.97,2.16,2.17-.97,2.16-2.16,2.16Z"/>
  </g>
</svg>