<?xml version="1.0" encoding="utf-8"?>
<!-- Generator: Adobe Illustrator 21.1.0, SVG Export Plug-In . SVG Version: 6.00 Build 0)  -->
<!DOCTYPE svg PUBLIC "-//W3C//DTD SVG 1.1//EN" "http://www.w3.org/Graphics/SVG/1.1/DTD/svg11.dtd">
<svg version="1.1" id="d_farbig" xmlns="http://www.w3.org/2000/svg" xmlns:xlink="http://www.w3.org/1999/xlink" x="0px" y="0px"
	 width="188.7px" height="30.7px" viewBox="0 0 188.7 30.7" style="enable-background:new 0 0 188.7 30.7;" xml:space="preserve">
<style type="text/css">
	.st0{fill:#62676C;}
	.st1{fill:#48878B;}
</style>
<path class="st0" d="M35.3,21.3c-0.1-0.5-0.1-1.1-0.1-1.7v-0.8h8.1c1.4,0,2.6-0.1,3.5-0.4c1-0.3,1.7-0.7,2.3-1.1
	c0.6-0.5,1-1.1,1.2-1.8c0.2-0.7,0.4-1.6,0.4-2.5v-2.9c0-0.9-0.1-1.7-0.4-2.5c-0.2-0.7-0.6-1.3-1.2-1.8c-0.6-0.5-1.3-0.9-2.3-1.2
	c-0.9-0.3-2.1-0.4-3.5-0.4h-5.8c-1.4,0-2.6,0.1-3.6,0.4c-0.9,0.3-1.7,0.7-2.3,1.2c-0.6,0.5-1,1.1-1.2,1.8c-0.2,0.7-0.4,1.6-0.4,2.5
	v11.4c0,0.9,0.1,1.7,0.4,2.5c0.3,0.8,0.8,1.4,1.4,2c0.6,0.6,1.5,1,2.5,1.3c1,0.3,2.2,0.5,3.6,0.5h8.6c1.5,0,2.4-0.2,2.8-0.5
	c0.5-0.3,0.7-0.9,0.7-1.8v-1.4H39.7c-0.9,0-1.7-0.1-2.3-0.4c-0.6-0.2-1.1-0.6-1.4-1C35.7,22.3,35.4,21.8,35.3,21.3L35.3,21.3z
	 M41.3,15.1h-6.1v-3.5c0-1.1,0.3-2,1-2.7c0.7-0.8,2-1.1,3.7-1.1h1.5c1.6,0,2.7,0.3,3.3,1c0.6,0.6,0.9,1.5,0.9,2.5v0.3
	c0,1-0.3,1.9-0.9,2.5C44.1,14.8,42.9,15.1,41.3,15.1L41.3,15.1z M72.1,11.1v16.7h5.2v-18c0-0.9-0.1-1.7-0.4-2.5
	c-0.2-0.7-0.6-1.3-1.2-1.8c-0.6-0.5-1.3-0.9-2.3-1.2c-0.9-0.3-2.1-0.4-3.5-0.4H56.6v23.8h5.1V7.6h6.1c1.6,0,2.7,0.3,3.3,1
	C71.8,9.2,72.1,10.1,72.1,11.1L72.1,11.1z M92.9,7.9h0.9V4.2H91c-1.4,0-2.6,0.1-3.6,0.4c-0.9,0.3-1.7,0.7-2.3,1.2
	c-0.6,0.5-1,1.1-1.2,1.8c-0.2,0.7-0.4,1.6-0.4,2.5v11.8c0,0.9,0.1,1.7,0.4,2.5c0.2,0.7,0.6,1.3,1.2,1.8c0.6,0.5,1.3,0.9,2.3,1.1
	c1,0.3,2.2,0.4,3.6,0.4h2.7v-3.7h-0.8c-1.5,0-2.6-0.2-3.2-0.8c-0.6-0.6-0.9-1.4-0.9-2.5v-9.7c0-1.1,0.3-1.9,0.9-2.4
	C90.3,8.1,91.4,7.9,92.9,7.9L92.9,7.9z M20.9,14.1c-0.9-0.3-2.1-0.4-3.5-0.4H13c-1.1,0-1.9-0.2-2.5-0.6c-0.6-0.5-0.8-1.2-0.8-2.2
	v-0.2c0-1,0.2-1.7,0.8-2.2c0.5-0.4,1.4-0.6,2.5-0.6h10.8l0-1.4c0-0.9-0.3-1.5-0.7-1.8c-0.5-0.3-1.4-0.6-2.8-0.6H12
	c-1.4,0-2.6,0.1-3.6,0.4C7.5,4.9,6.7,5.3,6.1,5.8c-0.6,0.5-1,1.1-1.2,1.8c-0.2,0.7-0.4,1.6-0.4,2.5v1.9c0,0.9,0.1,1.7,0.4,2.5
	c0.2,0.7,0.6,1.3,1.2,1.8c0.6,0.5,1.3,0.9,2.3,1.1c1,0.3,2.2,0.4,3.6,0.4h4.3c1.1,0,1.9,0.2,2.5,0.6c0.6,0.4,0.8,1.2,0.8,2.2v0.7
	c0,1-0.2,1.8-0.8,2.2c-0.5,0.4-1.4,0.6-2.5,0.6H4.1v1.4c0,0.9,0.2,1.5,0.7,1.8c0.5,0.3,1.4,0.5,2.9,0.5h9.7c1.4,0,2.6-0.1,3.5-0.4
	c1-0.3,1.7-0.7,2.3-1.1c0.6-0.5,1-1.1,1.2-1.8c0.2-0.7,0.4-1.6,0.4-2.5v-2.4c0-0.9-0.1-1.7-0.4-2.5c-0.2-0.7-0.6-1.3-1.2-1.8
	C22.6,14.8,21.8,14.3,20.9,14.1"/>
<path class="st1" d="M98.8,4.2h-2.7v3.7h0.8c1.5,0,2.6,0.2,3.2,0.8c0.7,0.5,0.9,1.4,0.9,2.4v9.7c0,1.1-0.3,1.9-0.9,2.5
	c-0.6,0.5-1.8,0.8-3.2,0.8h-0.8v3.7h2.7c1.4,0,2.6-0.1,3.5-0.4c1-0.3,1.7-0.7,2.3-1.1c0.6-0.5,1-1.1,1.2-1.8
	c0.2-0.7,0.4-1.6,0.4-2.5V10.1c0-0.9-0.1-1.7-0.4-2.5c-0.2-0.7-0.6-1.3-1.2-1.8c-0.6-0.5-1.3-0.9-2.3-1.2
	C101.4,4.3,100.3,4.2,98.8,4.2L98.8,4.2z M180.1,11.1v16.7h5.1v-18c0-0.9-0.1-1.7-0.4-2.5c-0.2-0.7-0.6-1.3-1.2-1.8
	c-0.6-0.5-1.3-0.9-2.3-1.2c-0.9-0.3-2.1-0.4-3.5-0.4h-13.2v23.8h5.1V7.6h6.1c1.6,0,2.7,0.3,3.3,1C179.8,9.2,180.1,10.1,180.1,11.1
	L180.1,11.1z M111.6,27.8h17.1c1.2,0,2.4-0.2,2.9-0.5c0.4-0.3,0.7-0.9,0.7-1.8v-1.4h-14.8l13-14.2c1-1.2,1.4-2.2,1.4-3.8V4.2h-15.7
	c-1.2,0-2.4,0.2-2.8,0.6c-0.5,0.3-0.7,0.9-0.7,1.8v1.4h13.3l-12.4,13.7c-0.7,0.7-1.8,2-1.8,4.2V27.8z M141,27.3
	c1,0.3,2.2,0.4,3.6,0.4h5.8c1.4,0,2.6-0.1,3.5-0.4c1-0.3,1.7-0.7,2.3-1.1c0.6-0.5,1-1.1,1.2-1.8c0.2-0.7,0.4-1.6,0.4-2.5V10.1
	c0-0.9-0.1-1.7-0.4-2.5c-0.2-0.7-0.6-1.3-1.2-1.8c-0.6-0.5-1.3-0.9-2.3-1.2c-0.9-0.3-2.1-0.4-3.5-0.4h-5.8c-1.4,0-2.6,0.1-3.6,0.4
	c-0.9,0.3-1.7,0.7-2.3,1.2c-0.6,0.5-1,1.1-1.2,1.8c-0.2,0.7-0.4,1.6-0.4,2.5v11.8c0,0.9,0.1,1.7,0.4,2.5c0.2,0.7,0.6,1.3,1.2,1.8
	C139.3,26.7,140,27.1,141,27.3L141,27.3z M151.7,23.3c-0.6,0.5-1.8,0.8-3.2,0.8h-2c-1.5,0-2.6-0.2-3.2-0.8c-0.6-0.6-0.9-1.4-0.9-2.5
	v-9.7c0-1.1,0.3-1.9,0.9-2.4c0.6-0.6,1.8-0.8,3.2-0.8h2c1.5,0,2.6,0.2,3.2,0.8c0.7,0.5,0.9,1.4,0.9,2.4v9.7
	C152.7,21.9,152.4,22.7,151.7,23.3"/>
</svg>
